{
    "xfw_prefix": "openwg_wot_video",
    "xfw_features": ["native","python"],
    "xfw_dependencies": ["com.modxvm.xfw.native.hooks"],
    "xfw_url": "https://gitlab.com/openwg/wot.video",
    "xfw_url_update": "https://gitlab.com/openwg/wot.video",
    "xfw_wot_versions": ["1.23.1.0"],
    "xfw_wot_versions_strategy": "allow_newer"
}